\relax 
\citation{inoue2012does}
\citation{CCFinder}
\newlabel{ipsj@firstpage}{{}{1}}
\@writefile{toc}{\contentsline {section}{\numberline {1}\hskip 1zw{まえがき}}{1}}
\citation{mutation}
\citation{mutation}
\citation{demuth1994neural}
\citation{inoue2012does}
\@writefile{toc}{\contentsline {section}{\numberline {2}\hskip 1zw{背景}}{2}}
\@writefile{toc}{\contentsline {subsection}{\numberline {2.1}{Royらのミューテーション}}{2}}
\newlabel{sec:mutation}{{2.1}{2}}
\newlabel{fig:mutatingCodeExample}{{1}{2}}
\newlabel{fig:neuralnetwork}{{2}{2}}
\@writefile{toc}{\contentsline {subsection}{\numberline {2.2}{FFNN}}{2}}
\@writefile{toc}{\contentsline {subsection}{\numberline {2.3}{Ichi Tracker}}{2}}
\@writefile{toc}{\contentsline {subsubsection}{\numberline {2.3.1}{Ichi Trackerの類似コード検索方法}}{2}}
\citation{spars2002}
\citation{rush2007source}
\citation{CCFinder}
\newlabel{fig:ichitracker}{{3}{3}}
\@writefile{toc}{\contentsline {subsubsection}{\numberline {2.3.2}{Ichi Trackerの問題点}}{3}}
\@writefile{toc}{\contentsline {section}{\numberline {3}\hskip 1zw{提案手法}}{3}}
\@writefile{toc}{\contentsline {subsection}{\numberline {3.1}{用語の定義}}{3}}
\newlabel{sec:negativeData}{{3.1}{3}}
\citation{CCFinder}
\citation{yokoi2017}
\citation{lau2016empirical}
\citation{lau2016empirical}
\newlabel{fig:myMethodStepA}{{4}{4}}
\@writefile{toc}{\contentsline {subsection}{\numberline {3.2}{FFNNによる機械学習}}{4}}
\newlabel{fig:BoWCode}{{5}{4}}
\@writefile{toc}{\contentsline {subsubsection}{\numberline {3.2.1}{特徴ベクトルの計算}}{4}}
\newlabel{sec:vector}{{3.2.1}{4}}
\newlabel{fig:doc2vecCode}{{6}{5}}
\@writefile{toc}{\contentsline {subsection}{\numberline {3.3}{類似コードブロックの検索}}{5}}
\@writefile{toc}{\contentsline {section}{\numberline {4}\hskip 1zw{評価実験}}{5}}
\newlabel{sec:EvaluationOfSearchPrecision}{{4}{5}}
\@writefile{toc}{\contentsline {subsection}{\numberline {4.1}{トレーニングパラメータ}}{5}}
\@writefile{toc}{\contentsline {subsection}{\numberline {4.2}{実験手順}}{5}}
\newlabel{sec:procedureForAccuracyEvaluation}{{4.2}{5}}
\@writefile{toc}{\contentsline {subsection}{\numberline {4.3}{データセットの作成方法}}{5}}
\newlabel{sec:bench}{{4.3}{5}}
\citation{svajlenko2014towards}
\newlabel{fig:myMethodStepB}{{7}{6}}
\newlabel{table:dataset}{{1}{6}}
\newlabel{fig:exampleForEvaluatingPrecision}{{8}{6}}
\@writefile{toc}{\contentsline {subsection}{\numberline {4.4}{検索精度の指標の定義}}{6}}
\newlabel{sec:standard}{{4.4}{6}}
\newlabel{table:similarity}{{2}{6}}
\newlabel{fig:successCodeType2}{{9}{7}}
\@writefile{toc}{\contentsline {subsection}{\numberline {4.5}{実験結果}}{7}}
\@writefile{toc}{\contentsline {subsection}{\numberline {4.6}{考察}}{7}}
\newlabel{sec:considerationOfSearchPrecision}{{4.6}{7}}
\newlabel{table:EvaluationOfSearchAccuracy}{{3}{7}}
\newlabel{fig:successCodeType3}{{10}{7}}
\newlabel{fig:failureCode}{{11}{7}}
\@writefile{toc}{\contentsline {subsection}{\numberline {4.7}{ミューテーションの評価}}{8}}
\newlabel{sec:EvaluationOfMutation}{{4.7}{8}}
\@writefile{toc}{\contentsline {subsubsection}{\numberline {4.7.1}{実験手順}}{8}}
\newlabel{sec:procedureForEvaluationOfMutation}{{4.7.1}{8}}
\@writefile{toc}{\contentsline {subsubsection}{\numberline {4.7.2}{実験結果}}{8}}
\@writefile{toc}{\contentsline {subsubsection}{\numberline {4.7.3}{考察}}{8}}
\newlabel{sec:considerationOfMutation}{{4.7.3}{8}}
\newlabel{table:mutation}{{4}{8}}
\citation{inoue2012does}
\citation{CCFinder}
\citation{Ishio2016}
\citation{Ishio2017}
\citation{Kawamitsu2014}
\citation{white2016deep}
\citation{gu2016deep}
\newlabel{graph:mutation}{{12}{9}}
\@writefile{toc}{\contentsline {section}{\numberline {5}\hskip 1zw{関連研究}}{9}}
\@writefile{toc}{\contentsline {section}{\numberline {6}\hskip 1zw{まとめと今後の課題}}{9}}
\bibstyle{ipsjunsrt.bst}
\bibdata{reference}
\bibcite{inoue2012does}{1}
\bibcite{CCFinder}{2}
\bibcite{mutation}{3}
\bibcite{demuth1994neural}{4}
\bibcite{spars2002}{5}
\bibcite{rush2007source}{6}
\bibcite{yokoi2017}{7}
\bibcite{lau2016empirical}{8}
\bibcite{svajlenko2014towards}{9}
\bibcite{Ishio2016}{10}
\bibcite{Ishio2017}{11}
\bibcite{Kawamitsu2014}{12}
\bibcite{white2016deep}{13}
\bibcite{gu2016deep}{14}
\newlabel{ipsj@lastpage}{{}{10}}
