%!PS-Adobe-3.0
%%Title: 
%%Creator: PScript5.dll Version 5.2.2
%%CreationDate: 2/6/2018 12:14:43
%%For: y-fujiwr
%%BoundingBox: (atend)
%%Pages: (atend)
%%Orientation: Portrait
%%PageOrder: Special
%%DocumentNeededResources: (atend)
%%DocumentSuppliedResources: (atend)
%%DocumentData: Clean7Bit
%%TargetDevice: () (52.3) 320
%%LanguageLevel: 1
%%EndComments

%%BeginDefaults
%%PageBoundingBox: 0 0 341 207
%%ViewingOrientation: 1 0 0 1
%%EndDefaults


%%BeginProlog
%%BeginResource: file Pscript_WinNT_ErrorHandler 5.0 0
/currentpacking where{pop/oldpack currentpacking def/setpacking where{pop false
setpacking}if}if/$brkpage 64 dict def $brkpage begin/prnt{dup type/stringtype
ne{=string cvs}if dup length 6 mul/tx exch def/ty 10 def currentpoint/toy exch
def/tox exch def 1 setgray newpath tox toy 2 sub moveto 0 ty rlineto tx 0
rlineto 0 ty neg rlineto closepath fill tox toy moveto 0 setgray show}bind def
/nl{currentpoint exch pop lmargin exch moveto 0 -10 rmoveto}def/=={/cp 0 def
typeprint nl}def/typeprint{dup type exec}readonly def/lmargin 72 def/rmargin 72
def/tprint{dup length cp add rmargin gt{nl/cp 0 def}if dup length cp add/cp
exch def prnt}readonly def/cvsprint{=string cvs tprint( )tprint}readonly def
/integertype{cvsprint}readonly def/realtype{cvsprint}readonly def/booleantype
{cvsprint}readonly def/operatortype{(--)tprint =string cvs tprint(-- )tprint}
readonly def/marktype{pop(-mark- )tprint}readonly def/dicttype{pop
(-dictionary- )tprint}readonly def/nulltype{pop(-null- )tprint}readonly def
/filetype{pop(-filestream- )tprint}readonly def/savetype{pop(-savelevel- )
tprint}readonly def/fonttype{pop(-fontid- )tprint}readonly def/nametype{dup
xcheck not{(/)tprint}if cvsprint}readonly def/stringtype{dup rcheck{(\()tprint
tprint(\))tprint}{pop(-string- )tprint}ifelse}readonly def/arraytype{dup rcheck
{dup xcheck{({)tprint{typeprint}forall(})tprint}{([)tprint{typeprint}forall(])
tprint}ifelse}{pop(-array- )tprint}ifelse}readonly def/packedarraytype{dup
rcheck{dup xcheck{({)tprint{typeprint}forall(})tprint}{([)tprint{typeprint}
forall(])tprint}ifelse}{pop(-packedarray- )tprint}ifelse}readonly def/courier
/Courier findfont 10 scalefont def end errordict/handleerror{systemdict begin
$error begin $brkpage begin newerror{/newerror false store vmstatus pop pop 0
ne{grestoreall}if errorname(VMerror)ne{showpage}if initgraphics courier setfont
lmargin 720 moveto errorname(VMerror)eq{userdict/ehsave known{clear userdict
/ehsave get restore 2 vmreclaim}if vmstatus exch pop exch pop PrtVMMsg}{
(ERROR: )prnt errorname prnt nl(OFFENDING COMMAND: )prnt/command load prnt
$error/ostack known{nl nl(STACK:)prnt nl nl $error/ostack get aload length{==}
repeat}if}ifelse systemdict/showpage get exec(%%[ Error: )print errorname
=print(; OffendingCommand: )print/command load =print( ]%%)= flush}if end end
end}dup 0 systemdict put dup 4 $brkpage put bind readonly put/currentpacking
where{pop/setpacking where{pop oldpack setpacking}if}if
%%EndResource
%%BeginProcSet: Pscript_Res_Emul 5.0 0
/defineresource where{pop}{userdict begin/defineresource{userdict/Resources 2
copy known{get begin}{15 dict dup begin put}ifelse exch readonly exch
currentdict 1 index known not{dup 30 dict def}if load 3 -1 roll 2 index put
end}bind readonly def/findresource{userdict/Resources get exch get exch get}
bind readonly def/resourceforall{pop pop pop pop}bind readonly def
/resourcestatus{userdict/Resources 2 copy known{get exch 2 copy known{get exch
known{0 -1 true}{false}ifelse}{pop pop pop false}ifelse}{pop pop pop pop false}
ifelse}bind readonly def end}ifelse
%%EndProcSet
userdict /Pscript_WinNT_Incr 230 dict dup begin put
%%BeginResource: file Pscript_FatalError 5.0 0
userdict begin/FatalErrorIf{{initgraphics findfont 1 index 0 eq{exch pop}{dup
length dict begin{1 index/FID ne{def}{pop pop}ifelse}forall/Encoding
{ISOLatin1Encoding}stopped{StandardEncoding}if def currentdict end
/ErrFont-Latin1 exch definefont}ifelse exch scalefont setfont counttomark 3 div
cvi{moveto show}repeat showpage quit}{cleartomark}ifelse}bind def end
%%EndResource
userdict begin/PrtVMMsg{vmstatus exch sub exch pop gt{[
(This job requires more memory than is available in this printer.)100 500
(Try one or more of the following, and then print again:)100 485
(For the output format, choose Optimize For Portability.)115 470
(In the Device Settings page, make sure the Available PostScript Memory is accurate.)
115 455(Reduce the number of fonts in the document.)115 440
(Print the document in parts.)115 425 12/Times-Roman[/GothicBBB-Medium-RKSJ-H
dup{findfont}stopped{cleartomark}{/FontName get eq{pop cleartomark[
<82B182CC83578387837582CD8CBB8DDD82B182CC8376838A8393835E82C59798977082C582AB82
E988C88FE382CC83818382838A82F0954B977682C682B582DC82B7814288C889BA82CC8A6590DD9
2E8>90 500<82CC88EA82C2814182DC82BD82CD82BB82CC916782DD8D8782ED82B982F08E7792
E882B582BD8CE381418376838A8393836782B592BC82B582C482DD82C482AD82BE82B382A28142>
90 485<A5506F73745363726970748376838D8370836583428356815B836782A982E7814183478
389815B82AA8C798CB882B782E982E682A482C98DC5934B89BB2082F0914991F082B782E98142>
90 455<A58366836F83438358834983768356838783938376838D8370836583428356815B83678
2CC209798977082C582AB82E98376838A8393835E83818382838A2082CC926C82AA90B382B582A2
82B182C682F08A6D944682B782E98142>90 440<A58368834C8385838183938367928682C58E6
7977082B382EA82C482A282E9837483488393836782CC909482F08CB882E782B78142>90 425
<A58368834C838583818393836782F095AA8A8482B582C48376838A8393836782B782E98142>90
410 10 0/GothicBBB-Medium-RKSJ-H}{cleartomark}ifelse}ifelse showpage
(%%[ PrinterError: Low Printer VM ]%%)= true FatalErrorIf}if}bind def end
version cvi 2016 ge{/VM?{pop}bind def}{/VM? userdict/PrtVMMsg get def}ifelse
105000 VM?
%%BeginResource: file Pscript_Win_Basic 5.0 0
/d/def load def/,/load load d/~/exch , d/?/ifelse , d/!/pop , d/`/begin , d/^
/index , d/@/dup , d/+/translate , d/$/roll , d/U/userdict , d/M/moveto , d/-
/rlineto , d/&/currentdict , d/:/gsave , d/;/grestore , d/F/false , d/T/true ,
d/N/newpath , d/E/end , d/Ac/arc , d/An/arcn , d/A/ashow , d/D/awidthshow , d/C
/closepath , d/V/div , d/O/eofill , d/L/fill , d/I/lineto , d/-c/curveto , d/-M
/rmoveto , d/+S/scale , d/Ji/setfont , d/Lc/setlinecap , d/Lj/setlinejoin , d
/Lw/setlinewidth , d/Lm/setmiterlimit , d/sd/setdash , d/S/show , d/LH/showpage
, d/K/stroke , d/W/widthshow , d/R/rotate , d/L2? false/languagelevel where{pop
languagelevel 2 ge{pop true}if}if d L2?{/xS/xshow , d/yS/yshow , d/zS/xyshow ,
d}if/b{bind d}bind d/bd{bind d}bind d/xd{~ d}bd/ld{, d}bd/bn/bind ld/lw/Lw ld
/lc/Lc ld/lj/Lj ld/sg/setgray ld/ADO_mxRot null d/self & d/OrgMx matrix
currentmatrix d/reinitialize{: OrgMx setmatrix[/TextInit/GraphInit/UtilsInit
counttomark{@ where{self eq}{F}?{cvx exec}{!}?}repeat cleartomark ;}b
/initialize{`{/Pscript_Win_Data where{!}{U/Pscript_Win_Data & put}?/ADO_mxRot ~
d/TextInitialised? F d reinitialize E}{U/Pscript_Win_Data 230 dict @ ` put
/ADO_mxRot ~ d/TextInitialised? F d reinitialize}?}b/terminate{!{& self eq
{exit}{E}?}loop E}b/suspend/terminate , d/resume{` Pscript_Win_Data `}b U `
/lucas 21690 d/featurebegin{countdictstack lucas[}b/featurecleanup{stopped
{cleartomark @ lucas eq{! exit}if}loop countdictstack ~ sub @ 0 gt{{E}repeat}
{!}?}b E/snap{transform 0.25 sub round 0.25 add ~ 0.25 sub round 0.25 add ~
itransform}b/dsnap{dtransform round ~ round ~ idtransform}b/nonzero_round{@ 0.5
ge{round}{@ -0.5 lt{round}{0 ge{1}{-1}?}?}?}b/nonzero_dsnap{dtransform
nonzero_round ~ nonzero_round ~ idtransform}b U<04>cvn{}put/rr{1 ^ 0 - 0 ~ -
neg 0 - C}b/irp{4 -2 $ + +S fx 4 2 $ M 1 ^ 0 - 0 ~ - neg 0 -}b/rp{4 2 $ M 1 ^ 0
- 0 ~ - neg 0 -}b/solid{[]0 sd}b/g{@ not{U/DefIf_save save put}if U/DefIf_bool
2 ^ put}b/DefIf_El{if U/DefIf_bool get not @{U/DefIf_save get restore}if}b/e
{DefIf_El !}b/UDF{L2?{undefinefont}{!}?}b/UDR{L2?{undefineresource}{! !}?}b
/freeVM{/Courier findfont[40 0 0 -40 0 0]makefont Ji 2 vmreclaim}b/hfRedefFont
{findfont @ length dict `{1 ^/FID ne{d}{! !}?}forall & E @ ` ~{/CharStrings 1
dict `/.notdef 0 d & E d}if/Encoding 256 array 0 1 255{1 ^ ~/.notdef put}for d
E definefont !}bind d/hfMkCIDFont{/CIDFont findresource @ length 2 add dict `{1
^ @/FID eq ~ @/XUID eq ~/UIDBase eq or or{! !}{d}?}forall/CDevProc ~ d/Metrics2
16 dict d/CIDFontName 1 ^ d & E 1 ^ ~/CIDFont defineresource ![~]composefont !}
bind d
%%EndResource
%%BeginResource: file Pscript_Win_Utils_L1 5.0 0
/rf{N rp L}b/fx{1 1 dtransform @ 0 ge{1 sub 1}{1 add -0.25}? 3 -1 $ @ 0 ge{1
sub 1}{1 add -0.25}? 3 1 $ 4 1 $ idtransform 4 -2 $ idtransform}b/BZ{4 -2 $
snap + +S fx rf}b/rs{N rp C K}b/rc{N rp clip N}b/UtilsInit{}b/setcolorspace{!}b
/scol{[/setgray/setrgbcolor/setcolor/setcmykcolor/setcolor/setgray]~ get cvx
exec}b/colspRefresh{}b/AddFontInfoBegin{/FontInfo 8 dict @ `}bind d/AddFontInfo
{/GlyphNames2Unicode 16 dict d/GlyphNames2HostCode 16 dict d}bind d
/AddFontInfoEnd{E d}bind d
%%EndResource
end
%%EndProlog

%%BeginSetup
statusdict begin (%%[ ProductName: ) print product print ( ]%%)= flush end
[ 1 0 0 1 0 0 ] false Pscript_WinNT_Incr dup /initialize get exec
featurebegin{
%%BeginNonPPDFeature: JobTimeout 0
0 /languagelevel where{pop languagelevel}{1}ifelse 2 ge{1 dict dup/JobTimeout  4 -1 roll put setuserparams}{statusdict/setjobtimeout get exec}ifelse
%%EndNonPPDFeature
}featurecleanup

featurebegin{
%%BeginNonPPDFeature: WaitTimeout 300
300 /languagelevel where{pop languagelevel}{1}ifelse 2 ge{1 dict dup/WaitTimeout 4 -1 roll put setuserparams}{statusdict/waittimeout 3 -1 roll put}ifelse
%%EndNonPPDFeature
}featurecleanup

featurebegin{
%%BeginFeature: *Resolution 600dpi

%%EndFeature
}featurecleanup
featurebegin{
%%BeginFeature: *CustomPageSize
 
341 207 0 0 1 exch pop statusdict /setpageparams get exec
%%EndFeature
}featurecleanup
1 setlinecap 1 setlinejoin
/mysetup [ 72 600 V 0 0 -72 600 V 0 207.49606 ] def 
%%EndSetup

userdict begin /VMsave save def end
%%Page: 1 1
%%PageBoundingBox: 0 0 341 207
%%EndPageComments
%%BeginPageSetup
/DeviceRGB dup setcolorspace /colspABC exch def
mysetup concat colspRefresh
%%EndPageSetup

Pscript_WinNT_Incr begin
%%BeginResource: file Pscript_Win_GdiObject 5.0 0
/SavedCTM null d/CTMsave{/SavedCTM SavedCTM currentmatrix d}b/CTMrestore
{SavedCTM setmatrix}b/mp null d/ADO_mxRot null d/GDIHMatrix null d
/GDIHPatternDict 22 dict d GDIHPatternDict `/PatternType 1 d/PaintType 2 d/Reps
L2?{1}{5}? d/XStep 8 Reps mul d/YStep XStep d/BBox[0 0 XStep YStep]d/TilingType
1 d/PaintProc{` 1 Lw[]0 sd PaintData , exec E}b/FGnd null d/BGnd null d
/HS_Horizontal{horiz}b/HS_Vertical{vert}b/HS_FDiagonal{fdiag}b/HS_BDiagonal
{biag}b/HS_Cross{horiz vert}b/HS_DiagCross{fdiag biag}b/MaxXYStep XStep YStep
gt{XStep}{YStep}? d/horiz{Reps{0 4 M XStep 0 - 0 8 +}repeat 0 -8 Reps mul + K}b
/vert{Reps{4 0 M 0 YStep - 8 0 +}repeat 0 -8 Reps mul + K}b/biag{Reps{0 0 M
MaxXYStep @ - 0 YStep neg M MaxXYStep @ - 0 8 +}repeat 0 -8 Reps mul + 0 YStep
M 8 8 - K}b/fdiag{Reps{0 0 M MaxXYStep @ neg - 0 YStep M MaxXYStep @ neg - 0 8
+}repeat 0 -8 Reps mul + MaxXYStep @ M 8 -8 - K}b E/makehatch{4 -2 $/yOrg ~ d
/xOrg ~ d GDIHPatternDict/PaintData 3 -1 $ put CTMsave GDIHMatrix setmatrix
GDIHPatternDict matrix xOrg yOrg + mp CTMrestore ~ U ~ 2 ^ put}b/h0{/h0
/HS_Horizontal makehatch}b/h1{/h1/HS_Vertical makehatch}b/h2{/h2/HS_FDiagonal
makehatch}b/h3{/h3/HS_BDiagonal makehatch}b/h4{/h4/HS_Cross makehatch}b/h5{/h5
/HS_DiagCross makehatch}b/GDIBWPatternMx null d/pfprep{save 8 1 $
/PatternOfTheDay 8 1 $ GDIBWPatternDict `/yOrg ~ d/xOrg ~ d/PaintData ~ d/yExt
~ d/Width ~ d/BGnd ~ d/FGnd ~ d/Height yExt RepsV mul d/mx[Width 0 0 Height 0
0]d E build_pattern ~ !}b/pfbf{/fEOFill ~ d pfprep hbf fEOFill{O}{L}? restore}b
/GraphInit{GDIHMatrix null eq{/SavedCTM matrix d : ADO_mxRot concat 0 0 snap +
: 0.48 @ GDIHPatternDict ` YStep mul ~ XStep mul ~ nonzero_dsnap YStep V ~
XStep V ~ E +S/GDIHMatrix matrix currentmatrix readonly d ; : 0.24 -0.24 +S
GDIBWPatternDict ` Width Height E nonzero_dsnap +S/GDIBWPatternMx matrix
currentmatrix readonly d ; ;}if}b
%%EndResource
%%BeginResource: file Pscript_Win_GdiObject_L1 5.0 0
/GDIBWPatternDict 25 dict @ `/PatternType 1 d/PaintType 2 d/RepsV 6 d/RepsH 5 d
/BBox[0 0 RepsH 1]d/TilingType 1 d/XStep 1 d/YStep 1 d/Height 8 RepsV mul d
/Width 8 d/mx[Width 0 0 Height neg 0 Height]d/FGnd null d/BGnd null d
/SetBGndFGnd{}b/PaintProc{` SetBGndFGnd RepsH{Width Height F mx PaintData
imagemask Width 0 +}repeat E}b E d/GDIpattfill{@ ` BGnd null ne PaintType 2 eq
and{: BGnd aload ! scol fEOFill{O}{L}? ; FGnd aload ! U/iCol 2 ^ put @ 0 eq{!
2}{@ 1 eq ~ 2 eq or{4}{5}?}? -1 $}if E @ patterncalc : 4 ^/PaintType get 2 eq
{iCol 0 eq{6 -1 $}if iCol 1 eq iCol 2 eq or{8 -3 $}if iCol 3 eq iCol 4 eq or{9
-4 $}if iCol scol}if fEOFill{eoclip}{clip}? N patternfill ; N}b/hbf
{GDIpattfill}b/hfMain{/fEOFill ~ d ~/iCol ~ d GDIpattfill}b/hf{: hfMain ;}b
/mpstr 1 string d/mp{~ @ length 12 add dict copy `/PatternCTM matrix
currentmatrix d/PatternMatrix ~ d/PatWidth XStep mpstr length mul d/PatHeight
YStep d/FontType 3 d/Encoding 256 array d 3 string 0 1 255{Encoding ~ @ 3 ^ cvs
cvn put}for !/FontMatrix matrix d/FontBBox BBox d/BuildChar{! @ ` XStep 0
FontBBox aload ! setcachedevice/PaintProc , E : exec ;}b & E ~ @ 3 -1 $
definefont}b/build_pattern{: GDIBWPatternDict ` Width Height E dsnap +S
/GDIBWPatternMx matrix currentmatrix d ; CTMsave GDIBWPatternMx setmatrix
GDIBWPatternDict @ ` xOrg yOrg E matrix + mp CTMrestore}b/patterncalc{` :
PatternCTM setmatrix PatternMatrix concat BBox aload ! ! ! + pathbbox ;
PatHeight V ceiling 4 1 $ PatWidth V ceiling 4 1 $ PatHeight V floor 4 1 $
PatWidth V floor 4 1 $ 2 ^ sub cvi abs ~ 3 ^ sub cvi abs ~ 4 2 $ PatHeight mul
~ PatWidth mul ~ E}b/patternfill{5 -1 $ @ ` Ji PatternCTM setmatrix
PatternMatrix concat 0 2 ^ 2 ^ M 0 1 mpstr length 1 sub{1 ^ mpstr 3 1 $ put}for
! 2 ^{currentpoint 5 ^{mpstr S}repeat YStep add M}repeat ! ! ! ! E}b/pbf{: 14
dict `/fGray ~ d/fEOFill ~ d/yOrg ~ d/xOrg ~ d/PaintData ~ d/OutputBPP ~ d
/Height ~ d/Width ~ d/mx xOrg yOrg matrix + d fGray{/PaintProc{` Width Height
OutputBPP mx PaintData image E}b}{/PaintProc{` Width Height 8 mx PaintData F
OutputBPP 8 idiv colorimage E}b}? pathbbox fEOFill{eoclip}{clip}?/Top ~ d/Right
~ d/Bottom ~ d/Left ~ d Top Height neg Bottom 1 sub{Left Width Right 1 sub{1 ^
2 copy + & PaintProc neg ~ neg ~ +}bind for !}bind for E ;}b
%%EndResource
end reinitialize
: 0 2 2836 1727 rc N -3 2 M -3 1731 I 2835 1731 I 2835 2 I -3 2 I C 
1 1 1 1 scol  O ; 0.852 0.852 0.852 1 scol 1 Lj 0 Lc 16 Lw solid N 407 1062 M 2749 1062 I 407 950 M 2749 950 I 407 843 M 2749 843 I 407 737 M 2749 737 I 407 625 M 2749 625 I 407 519 M 2749 519 I 407 413 M 2749 413 I 407 306 M 2749 306 I 407 194 M 2749 194 I 407 88 M 2749 88 I : [ 0.367 0 0 0.367 0 0 ] concat K 
; N 407 1168 M 2749 1168 I : [ 0.367 0 0 0.367 0 0 ] concat K 
; 0.93 0.488 0.191 1 scol 1 Lc 48 Lw : 528 89 2103 1085 rc N 538 1168 M 798 1168 I 1058 1168 I 1318 118 I 1578 100 I 1838 100 I 2098 94 I 2359 88 I 2619 88 I : [ 0.367 0 0 0.367 0 0 ] concat K 
; ; 0.648 0.648 0.648 1 scol : 528 102 2103 1072 rc N 538 1168 M 798 1168 I 1058 1168 I 1318 979 I 1578 442 I 1838 377 I 2098 230 I 2359 135 I 2619 112 I : [ 0.367 0 0 0.367 0 0 ] concat K 
; ; 0.348 0.348 0.348 1 scol 28670 VM?
Pscript_WinNT_Incr begin
%%BeginResource: file Pscript_T3Hdr 5.0 0
{version cvi 2016 ge{32/FontType resourcestatus{pop pop true}{false}ifelse}
{false}ifelse}exec/Is2016andT32? exch def/T32DefSBCMap{/CIDInit/ProcSet
findresource begin 10 dict begin begincmap/CIDSystemInfo 3 dict dup begin
/Registry(Adobe)def/Ordering(Identity1)def/Supplement 0 def end def/CMapType 0
def/WMode 0 def 1 begincodespacerange<00><ff>endcodespacerange 1 begincidrange
<00><ff>0 endcidrange endcmap/DrvSBCMap currentdict/CMap defineresource pop end
end}bind def Is2016andT32?{T32DefSBCMap}def/T32RsrcBegin{Is2016andT32?{
/BitmapFontInit/ProcSet findresource begin}if}bind def/T32RsrcEnd{Is2016andT32?
{end}if}bind def/AddT32Char{6 1 roll 0 get 7 1 roll pop pop 5 1 roll pop
findfont/TT32R get addglyph}bind def/AddT3Char{findfont dup 5 2 roll 1 index
length 0 gt{cvx 1 index exch 4 exch put dup(imagemask)cvx cvn 5 exch put cvx}
{pop cvx}ifelse 3 -1 roll/CharProcs get 3 1 roll put dup/Encoding get 5 -1 roll
4 index put/Metrics get 3 1 roll put}bind def/AddT3T32Char Is2016andT32?{
/AddT32Char}{/AddT3Char}ifelse load def/GreNewFontT32{5 dict begin exch
/FontMatrix exch def exch/FontBBox exch def exch pop exch pop/CIDFontType 4 def
dup currentdict end/CIDFont defineresource 3 -1 roll dup/DrvSBCMap dup/CMap
resourcestatus{pop pop}{T32DefSBCMap}ifelse 5 -1 roll[exch]composefont dup
length dict copy dup/FID undef begin exch/TT32R exch def currentdict end
definefont/BitmapFontInit/ProcSet findresource begin/TT32R get[14 0 0 0 0 0]<>0
4 -1 roll addglyph end}bind def/GreNewFontT3{11 dict begin pop/FontType 3 def
/FontMatrix exch def/FontBBox exch def/Encoding exch def/CharProcs 257 dict def
CharProcs/.notdef{}put/Metrics 257 dict def Metrics/.notdef 3 -1 roll put
AddFontInfoBegin AddFontInfo AddFontInfoEnd/BuildChar{userdict begin/char exch
def dup/charname exch/Encoding get char get def dup/Metrics get charname 2 copy
known{get aload pop}{pop/.notdef get aload pop}ifelse setcachedevice begin
Encoding char get CharProcs exch 2 copy known{get}{pop/.notdef get}ifelse end
exec end}def currentdict end definefont pop}bind def/GreNewFont{Is2016andT32?
{GreNewFontT32}{GreNewFontT3}ifelse}bind def/UDF3{Is2016andT32?{/BitmapFontInit
/ProcSet findresource begin dup/CIDFont findresource removeall/CIDFont
undefineresource undefinefont end}{pop UDF}ifelse}bind def
%%EndResource
end reinitialize
/TT16b00
[70 0 0 0 0 0 ] 
 256 array 0 1 255 {1 index exch /.notdef put} for 
[0 0 0 0 ] 
[1 70 div 0 0 -1 70 div 0 0 ]
/__TT16b00
GreNewFont
T32RsrcBegin

1
/g1004 [36 0 2 -46 34 1 ] 
/g1004 [32 47 true [1 0 0 1 -2 46 ]  0 0]
[<00008000
003ffe00
00ffff00
01ffffc0
03ffffe0
07fc3ff0
0ff007f0
0fc003f8
1fc001f8
1f8001fc
3f0000fc
3f0000fc
3f0000fe
7e00007e
7e00007e
7e00007e
7e00007e
7e00007e
7e00007e
7e00007e
7e00007e
7e00007f
7e00007f
7e00007f
7e00007f
7e00007e
7e00007e
7e00007e
7e00007e
7e00007e
7e00007e
7e00007e
7e00007e
7e00007e
7f0000fc
3f0000fc
3f0000fc
3f8001f8
1f8001f8
1fc003f0
0fe007f0
0ffc3fe0
07ffffc0
03ffff80
01ffff00
007ffc00
0007c000
>
 ]
/TT16b00 AddT3T32Char
T32RsrcEnd
Pscript_WinNT_Incr begin
%%BeginResource: file Pscript_Text 5.0 0
/TextInit{TextInitialised? not{/Pscript_Windows_Font & d/TextInitialised? T d
/fM[1 0 0 1 0 0]d/mFM matrix d/iMat[1 0 0.212557 1 0 0]d}if}b/copyfont{1 ^
length add dict `{1 ^/FID ne{d}{! !}?}forall & E}b/EncodeDict 11 dict d/bullets
{{/bullet}repeat}b/rF{3 copyfont @ ` ~ EncodeDict ~ get/Encoding ~ 3 ^/0 eq{&
/CharStrings known{CharStrings/Eth known not{! EncodeDict/ANSIEncodingOld get}
if}if}if d E}b/mF{@ 7 1 $ findfont ~{@/Encoding get @ StandardEncoding eq{! T}{
{ISOLatin1Encoding}stopped{! F}{eq}?{T}{@ ` T 32 1 127{Encoding 1 ^ get
StandardEncoding 3 -1 $ get eq and}for E}?}?}{F}?{1 ^ ~ rF}{0 copyfont}? 6 -2 $
! ! ~ !/pd_charset @ where{~ get 128 eq{@ FDV 2 copy get @ length array copy
put pd_CoverFCRange}if}{!}? 2 ^ ~ definefont fM 5 4 -1 $ put fM 4 0 put fM
makefont Pscript_Windows_Font 3 1 $ put}b/sLT{: Lw -M currentpoint snap M 0 - 0
Lc K ;}b/xUP null d/yUP null d/uW null d/xSP null d/ySP null d/sW null d/sSU{N
/uW ~ d/yUP ~ d/xUP ~ d}b/sU{xUP yUP uW sLT}b/sST{N/sW ~ d/ySP ~ d/xSP ~ d}b/sT
{xSP ySP sW sLT}b/sR{: + R 0 0 M}b/sRxy{: matrix astore concat 0 0 M}b/eR/; , d
/AddOrigFP{{&/FontInfo known{&/FontInfo get length 6 add}{6}? dict `
/WinPitchAndFamily ~ d/WinCharSet ~ d/OrigFontType ~ d/OrigFontStyle ~ d
/OrigFontName ~ d & E/FontInfo ~ d}{! ! ! ! !}?}b/mFS{makefont
Pscript_Windows_Font 3 1 $ put}b/mF42D{0 copyfont `/FontName ~ d 2 copy ~ sub 1
add dict `/.notdef 0 d 2 copy 1 ~{@ 3 ^ sub Encoding ~ get ~ d}for & E
/CharStrings ~ d ! ! & @ E/FontName get ~ definefont}b/mF42{15 dict ` @ 4 1 $
FontName ~ d/FontType 0 d/FMapType 2 d/FontMatrix[1 0 0 1 0 0]d 1 ^ 254 add 255
idiv @ array/Encoding ~ d 0 1 3 -1 $ 1 sub{@ Encoding 3 1 $ put}for/FDepVector
Encoding length array d/CharStrings 2 dict `/.notdef 0 d & E d 0 1 Encoding
length 1 sub{@ @ 10 lt{! FontName length 1 add string}{100 lt{FontName length 2
add string}{FontName length 3 add string}?}? @ 0 FontName @ length string cvs
putinterval @ 3 -1 $ @ 4 1 $ 3 string cvs FontName length ~ putinterval cvn 1 ^
256 mul @ 255 add 3 -1 $ 4 ^ findfont mF42D FDepVector 3 1 $ put}for & @ E
/FontName get ~ definefont ! ! ! mF}b/mF_OTF_V{~ ! ~ ! 4 -1 $ ! findfont 2 ^ ~
definefont fM @ @ 4 6 -1 $ neg put 5 0 put 90 matrix R matrix concatmatrix
makefont Pscript_Windows_Font 3 1 $ put}b/mF_TTF_V{3{~ !}repeat 3 -1 $ !
findfont 1 ^ ~ definefont Pscript_Windows_Font 3 1 $ put}b/UmF{L2?
{Pscript_Windows_Font ~ undef}{!}?}b/UmF42{@ findfont/FDepVector get{/FontName
get undefinefont}forall undefinefont}b
%%EndResource
end reinitialize
F /F0 0 /0 F /TT16b00 mF 
/F0S46 F0 [70.832 0 0 -70.832 0 0 ] mFS
F0S46 Ji 
311 1188 M <01>S 
3341 VM?
T32RsrcBegin

2
/g856 [18 0 5 -8 13 0 ] 
/g856 [8 8 true [1 0 0 1 -5 8 ]  0 0]
[<3c
7e
ff
ff
ff
ff
fe
7e
>
 ]
/TT16b00 AddT3T32Char

3
/g1005 [36 0 6 -45 32 0 ] 
/g1005 [26 45 true [1 0 0 1 -6 45 ]  0 0]
[<001f8000
007f8000
00ff8000
03ff8000
07ff8000
1fff8000
3fdf8000
ff1f8000
fe1f8000
f81f8000
e01f8000
c01f8000
001f8000
001f8000
001f8000
001f8000
001f8000
001f8000
001f8000
001f8000
001f8000
001f8000
001f8000
001f8000
001f8000
001f8000
001f8000
001f8000
001f8000
001f8000
001f8000
001f8000
001f8000
001f8000
001f8000
001f8000
001f8000
001f8000
001f8000
001f8000
7fffffc0
ffffffc0
ffffffc0
ffffffc0
7fffffc0
>
 ]
/TT16b00 AddT3T32Char
T32RsrcEnd
257 1080 M <01>S 
293 1080 M <02>S  310 1080 M <03>S  
1670 VM?
T32RsrcBegin

4
/g1006 [36 0 4 -46 32 0 ] 
/g1006 [28 46 true [1 0 0 1 -4 46 ]  0 0]
[<000c0000
01ffe000
0ffff800
1ffffc00
7ffffe00
7fffff00
7f01ff80
78007f80
70003f80
00003fc0
00001fc0
00001fc0
00001fc0
00001fc0
00001fc0
00001fc0
00001fc0
00001f80
00003f80
00003f80
00007f00
00007f00
0000fe00
0000fe00
0001fc00
0003f800
0007f000
0007f000
000fe000
001fc000
003f8000
007f0000
00fe0000
01fc0000
03f80000
07f00000
0fe00000
1fc00000
3f800000
7f800000
7f000000
fffffff0
fffffff0
fffffff0
fffffff0
fffffff0
>
 ]
/TT16b00 AddT3T32Char
T32RsrcEnd
257 972 M <01>S 
293 972 M <02>S  310 972 M <04>S  
1670 VM?
T32RsrcBegin

5
/g1007 [36 0 4 -46 32 1 ] 
/g1007 [28 47 true [1 0 0 1 -4 46 ]  0 0]
[<000c0000
01ffe000
0ffff800
1ffffc00
7ffffe00
7fc7ff00
7e00ff80
78003f80
60003f80
00001f80
00001fc0
00001fc0
00001fc0
00001f80
00001f80
00001f80
00003f80
00007f00
0000ff00
0001fe00
000ffc00
0ffff000
0fff8000
0ffff800
0ffffe00
000fff00
0000ff80
00003fc0
00001fe0
00000fe0
00000fe0
000007f0
000007f0
000007f0
000007f0
000007f0
000007e0
00000fe0
80000fe0
e0001fc0
f8007fc0
ff83ff80
ffffff00
fffffe00
3ffff800
0fffe000
007e0000
>
 ]
/TT16b00 AddT3T32Char
T32RsrcEnd
257 865 M <01>S 
293 865 M <02>S  310 865 M <05>S  
1670 VM?
T32RsrcBegin

6
/g1008 [36 0 2 -45 34 0 ] 
/g1008 [32 45 true [1 0 0 1 -2 45 ]  0 0]
[<00007f80
0000ffc0
0000ffc0
0001ffc0
0001ffc0
0003ffc0
0007efc0
0007cfc0
000fcfc0
000f8fc0
001f8fc0
003f0fc0
003e0fc0
007e0fc0
007c0fc0
00fc0fc0
01f80fc0
01f00fc0
03f00fc0
03e00fc0
07e00fc0
07c00fc0
0f800fc0
1f800fc0
1f000fc0
3f000fc0
3e000fc0
7c000fc0
fc000fc0
f8000fc0
ffffffff
ffffffff
ffffffff
ffffffff
fffffffe
00000fc0
00000fc0
00000fc0
00000fc0
00000fc0
00000fc0
00000fc0
00000fc0
00000fc0
00000f80
>
 ]
/TT16b00 AddT3T32Char
T32RsrcEnd
257 757 M <01>S 
293 757 M <02>S  310 757 M <06>S  
1670 VM?
T32RsrcBegin

7
/g1009 [36 0 3 -45 32 1 ] 
/g1009 [29 46 true [1 0 0 1 -3 45 ]  0 0]
[<0fffffc0
1fffffc0
1fffffc0
1fffffc0
1fffffc0
1f000000
1f000000
1f000000
1f000000
1f000000
1f000000
1f000000
1f000000
1f000000
1f000000
1f000000
1f000000
1f000000
1ffff000
1ffffc00
1fffff00
1fffff80
1f87ffc0
00003fe0
00000fe0
000007f0
000007f0
000003f8
000003f8
000003f8
000001f8
000001f8
000003f8
000003f8
000003f0
000003f0
000007f0
00000fe0
60001fe0
78003fc0
7f81ff80
7fffff00
7ffffe00
3ffffc00
0fffe000
007e0000
>
 ]
/TT16b00 AddT3T32Char
T32RsrcEnd
257 649 M <01>S 
293 649 M <02>S  310 649 M <07>S  
1670 VM?
T32RsrcBegin

8
/g1010 [36 0 4 -45 33 1 ] 
/g1010 [29 46 true [1 0 0 1 -4 45 ]  0 0]
[<000fff80
003fffe0
00ffffe0
01ffffe0
03fe07e0
07f80060
0fe00000
1fc00000
1f800000
3f000000
3f000000
3e000000
7e000000
7e000000
7c000000
fc000000
fc000000
fc018000
fc3ffc00
fdffff00
ffffffc0
ffffffe0
fff03fe0
ff800ff0
fe0007f0
fc0003f8
fc0003f8
fc0001f8
fc0001f8
fc0001f8
fc0001f8
fc0001f8
fc0001f8
fc0001f8
7e0001f8
7e0003f0
7e0003f0
3f0007f0
3f800fe0
3fc01fe0
1ff07fc0
0fffff80
07ffff00
03fffc00
00fff000
001f8000
>
 ]
/TT16b00 AddT3T32Char
T32RsrcEnd
257 541 M <01>S 
293 541 M <02>S  310 541 M <08>S  
1670 VM?
T32RsrcBegin

9
/g1011 [36 0 3 -45 33 0 ] 
/g1011 [30 45 true [1 0 0 1 -3 45 ]  0 0]
[<7ffffff8
7ffffffc
fffffffc
fffffffc
7ffffffc
000001f8
000001f8
000003f8
000003f0
000007f0
000007e0
000007e0
00000fc0
00000fc0
00001f80
00001f80
00003f80
00003f00
00007f00
00007e00
00007e00
0000fc00
0000fc00
0001fc00
0001f800
0003f800
0003f000
0007f000
0007e000
0007e000
000fe000
000fc000
001fc000
001f8000
003f8000
003f0000
007f0000
007e0000
007e0000
00fe0000
00fc0000
01fc0000
01f80000
03f80000
03f00000
>
 ]
/TT16b00 AddT3T32Char
T32RsrcEnd
257 434 M <01>S 
293 434 M <02>S  310 434 M <09>S  
1670 VM?
T32RsrcBegin

10
/g1012 [36 0 3 -46 33 1 ] 
/g1012 [30 47 true [1 0 0 1 -3 46 ]  0 0]
[<00030000
007ffc00
01ffff00
07ffff80
0fffffc0
1ff03fe0
1fc00ff0
3f8007f0
3f0003f0
3f0003f0
7e0001f0
7e0001f0
7e0001f0
3f0003f0
3f0003f0
3f8007e0
1fc007e0
1fe00fc0
0ff03f80
07fc7f00
03fffe00
01fffc00
007ff000
007ffc00
01fffe00
03fdff80
07f07fc0
1fe01fe0
3f800ff0
3f0007f8
7e0003f8
7e0001fc
fc0000fc
fc0000fc
fc0000fc
fc0000fc
fc0000fc
fc0000fc
fe0001f8
7e0003f8
7f8007f8
3fe01ff0
3fffffe0
1fffffc0
07ffff80
01fffc00
000fc000
>
 ]
/TT16b00 AddT3T32Char
T32RsrcEnd
257 326 M <01>S 
293 326 M <02>S  310 326 M <0A>S  
1670 VM?
T32RsrcBegin

11
/g1013 [36 0 3 -46 32 1 ] 
/g1013 [29 47 true [1 0 0 1 -3 46 ]  0 0]
[<00030000
007ff800
03fffe00
07ffff00
0fffff80
1ff07fc0
3fc01fc0
3f000fe0
7f0007e0
7e0007f0
fe0003f0
fc0003f0
fc0003f8
fc0001f8
fc0001f8
fc0001f8
fc0001f8
fc0001f8
fc0001f8
fe0001f8
fe0001f8
7f0001f8
7f8007f8
3fe03ff8
3ffffff8
1ffffff8
07fffdf8
03fff1f8
003f01f8
000001f8
000001f8
000001f0
000003f0
000003f0
000003f0
000007e0
000007e0
00000fc0
00001fc0
00003f80
6000ff00
7e03fe00
7ffffc00
7ffff800
3ffff000
1fff8000
00f80000
>
 ]
/TT16b00 AddT3T32Char
T32RsrcEnd
257 218 M <01>S 
293 218 M <02>S  310 218 M <0B>S  
311 110 M <03>S 
525 1280 M <03>S 
749 1280 M <03>S 
785 1280 M <01>S  820 1280 M <01>S  
991 1280 M <03>S 
1027 1280 M <01>S  1062 1280 M <01>S  1098 1280 M <01>S  
1251 1280 M <04>S 
1287 1280 M <01>S  1322 1280 M <01>S  1358 1280 M <01>S  
1512 1280 M <05>S 
1547 1280 M <01>S  1582 1280 M <01>S  1618 1280 M <01>S  
1772 1280 M <06>S 
1807 1280 M <01>S  1843 1280 M <01>S  1878 1280 M <01>S  
2032 1280 M <07>S 
2067 1280 M <01>S  2103 1280 M <01>S  2138 1280 M <01>S  
2292 1280 M <09>S 
2328 1280 M <01>S  2363 1280 M <01>S  2398 1280 M <01>S  
2534 1280 M <03>S 
2570 1280 M <01>S  2605 1280 M <01>S  2641 1280 M <01>S  2676 1280 M <01>S  
30848 VM?
/TT17b00
[76 0 0 0 0 0 ] 
 256 array 0 1 255 {1 index exch /.notdef put} for 
[0 0 0 0 ] 
[1 76 div 0 0 -1 76 div 0 0 ]
/__TT17b00
GreNewFont
T32RsrcBegin

1
/g1454 [77 0 -64 -72 5 -3 ] 
/g1454 [69 69 true [1 0 0 1 64 72 ]  0 0]
[<001ff8000000000780
001ff8000000000780
001ff8000000000780
001c00380000000780
001c00380700700780
001c00380700700780
001c00380700700780
001c00380700700700
001c00380700700700
001c00380700700700
001c00380700700700
001c00380700700700
001c00380700700700
001c20380700700700
001c70380700700700
001c7c380700700700
001c7fb80700700700
001c1ff80700700700
001c03ffffffffff00
001c00ffffffffff00
001c003fffffffff00
601c00380700700700
7c1c00380700700700
7f9c00380700700700
fffc00380700700700
1ffe00380700700700
00ff80380700700700
001fe0380700700700
001ff8380700700700
001cfe380700700700
001c3fb80700700700
001c0ff80700700700
001c03f80700700700
001c00fffffffffff8
001c003ffffffffff8
001c001ffffffffff8
001c00078000000000
001c0003e000000000
001ff801f000000000
001ff800f800000000
001ff8003c00000000
001ff8001e00000000
01c000000f00000000
03c000000600000000
03c000000000000000
01c00003fffffff000
01c00003fffffff000
01c00003fffffff000
01c00003ffffffe000
01c000038000070000
01c000038000070000
01c000038000070000
01c000038000070000
01fc00038000070000
01ffc0038000070000
01fff8038000070000
01cfff038000070000
01c07fe38000070000
01c00ffbffffffff00
01c001ffffffffff00
01c0003fffffffff00
01c0000fe000000000
01c00003f000000000
01c00000fc00000000
01c000003f00000000
03c000001f80000000
03c0000007c0000000
0000000003c0000000
000000000180000000
>
 ]
/TT17b00 AddT3T32Char

2
/g3954 [77 0 -64 -72 6 -5 ] 
/g3954 [70 67 true [1 0 0 1 64 72 ]  0 0]
[<0000000000001c0000
00e0000000003c0000
00e0000000603c0000
00e0000000f03c0000
00e0000001f03c0000
00e0000003e03c0000
00e0600003c03c0000
00e0f00007803c0000
00e1f0000f001c0000
00e078001e001c0000
00e03c003c001c0000
00e01e003c001c0000
00e00f0078001c0000
00e00f80f0001c0000
00e00780e0001c0000
00e003c1e0001c0000
00e001e0c0001c0000
00e000e000701c0000
00e000c001f01c0000
00e0000003f01c0000
00e000000fc01c0000
00e000001f001c0000
00e000003f001c0000
00e00800ff001c0000
00e01c01f7001c0000
00e03e01c3001c0000
00e03f0083001c0000
00e00f8003801c0000
00e007c003801c0000
00e003e003801c0000
00e000f003801c0000
80e0007c03801c0000
ffe4003e038e1c001c
ffe6001f038ffffffc
ffef000f818ffffffc
ffff8007c1cffffffc
00e7c00fe1c81c0000
00e3f01ff1c01c0000
00e0f83e79c01c0000
00e07c7c3dc01c0000
00e01ef81fc01c0000
00e00ff00fc01c0000
00e007e007c01c0000
00e003c003c01c0000
00e0078001e01c0000
00e00f0000e01c0000
00e01e0000e01c0000
00e01c0000e01c0000
00e0080000f01c0000
00e0000020e01c0000
00e00080f0001c0000
00e001c078001c0000
00e003e038001c0000
00e007c03c001c0000
00e00f801e001c0000
00e01f000f001c0000
00e03e000f001c0000
00e03c0007801c0000
00e0780003c01c0000
00e0f00003c03c0000
00e0e00001e03c0000
00e0600000f03c0000
00e0000000f03c0000
00e0000000783c0000
00e0000000783c0000
00e0000000203c0000
0000000000003c0000
>
 ]
/TT17b00 AddT3T32Char
T32RsrcEnd
F /F1 0 /0 F /TT17b00 mF 
/F1S4D F1 [77.082 0 0 -77.082 0 0 ] mFS
F1S4D Ji 
196 709 M <01>S 
196 632 M <02>S  
VMsave restore
userdict begin /VMsave save def end
mysetup concat colspRefresh
/DeviceRGB dup setcolorspace /colspABC exch def
0.348 0.348 0.348 1 scol 1 Lj 1 Lc 48 Lw Pscript_WinNT_Incr begin
%%BeginResource: file Pscript_Text 5.0 0
/TextInit{TextInitialised? not{/Pscript_Windows_Font & d/TextInitialised? T d
/fM[1 0 0 1 0 0]d/mFM matrix d/iMat[1 0 0.212557 1 0 0]d}if}b/copyfont{1 ^
length add dict `{1 ^/FID ne{d}{! !}?}forall & E}b/EncodeDict 11 dict d/bullets
{{/bullet}repeat}b/rF{3 copyfont @ ` ~ EncodeDict ~ get/Encoding ~ 3 ^/0 eq{&
/CharStrings known{CharStrings/Eth known not{! EncodeDict/ANSIEncodingOld get}
if}if}if d E}b/mF{@ 7 1 $ findfont ~{@/Encoding get @ StandardEncoding eq{! T}{
{ISOLatin1Encoding}stopped{! F}{eq}?{T}{@ ` T 32 1 127{Encoding 1 ^ get
StandardEncoding 3 -1 $ get eq and}for E}?}?}{F}?{1 ^ ~ rF}{0 copyfont}? 6 -2 $
! ! ~ !/pd_charset @ where{~ get 128 eq{@ FDV 2 copy get @ length array copy
put pd_CoverFCRange}if}{!}? 2 ^ ~ definefont fM 5 4 -1 $ put fM 4 0 put fM
makefont Pscript_Windows_Font 3 1 $ put}b/sLT{: Lw -M currentpoint snap M 0 - 0
Lc K ;}b/xUP null d/yUP null d/uW null d/xSP null d/ySP null d/sW null d/sSU{N
/uW ~ d/yUP ~ d/xUP ~ d}b/sU{xUP yUP uW sLT}b/sST{N/sW ~ d/ySP ~ d/xSP ~ d}b/sT
{xSP ySP sW sLT}b/sR{: + R 0 0 M}b/sRxy{: matrix astore concat 0 0 M}b/eR/; , d
/AddOrigFP{{&/FontInfo known{&/FontInfo get length 6 add}{6}? dict `
/WinPitchAndFamily ~ d/WinCharSet ~ d/OrigFontType ~ d/OrigFontStyle ~ d
/OrigFontName ~ d & E/FontInfo ~ d}{! ! ! ! !}?}b/mFS{makefont
Pscript_Windows_Font 3 1 $ put}b/mF42D{0 copyfont `/FontName ~ d 2 copy ~ sub 1
add dict `/.notdef 0 d 2 copy 1 ~{@ 3 ^ sub Encoding ~ get ~ d}for & E
/CharStrings ~ d ! ! & @ E/FontName get ~ definefont}b/mF42{15 dict ` @ 4 1 $
FontName ~ d/FontType 0 d/FMapType 2 d/FontMatrix[1 0 0 1 0 0]d 1 ^ 254 add 255
idiv @ array/Encoding ~ d 0 1 3 -1 $ 1 sub{@ Encoding 3 1 $ put}for/FDepVector
Encoding length array d/CharStrings 2 dict `/.notdef 0 d & E d 0 1 Encoding
length 1 sub{@ @ 10 lt{! FontName length 1 add string}{100 lt{FontName length 2
add string}{FontName length 3 add string}?}? @ 0 FontName @ length string cvs
putinterval @ 3 -1 $ @ 4 1 $ 3 string cvs FontName length ~ putinterval cvn 1 ^
256 mul @ 255 add 3 -1 $ 4 ^ findfont mF42D FDepVector 3 1 $ put}for & @ E
/FontName get ~ definefont ! ! ! mF}b/mF_OTF_V{~ ! ~ ! 4 -1 $ ! findfont 2 ^ ~
definefont fM @ @ 4 6 -1 $ neg put 5 0 put 90 matrix R matrix concatmatrix
makefont Pscript_Windows_Font 3 1 $ put}b/mF_TTF_V{3{~ !}repeat 3 -1 $ !
findfont 1 ^ ~ definefont Pscript_Windows_Font 3 1 $ put}b/UmF{L2?
{Pscript_Windows_Font ~ undef}{!}?}b/UmF42{@ findfont/FDepVector get{/FontName
get undefinefont}forall undefinefont}b
%%EndResource
end reinitialize
38513 VM?
38513 VM?
Pscript_WinNT_Incr begin
%%BeginResource: file Pscript_T3Hdr 5.0 0
{version cvi 2016 ge{32/FontType resourcestatus{pop pop true}{false}ifelse}
{false}ifelse}exec/Is2016andT32? exch def/T32DefSBCMap{/CIDInit/ProcSet
findresource begin 10 dict begin begincmap/CIDSystemInfo 3 dict dup begin
/Registry(Adobe)def/Ordering(Identity1)def/Supplement 0 def end def/CMapType 0
def/WMode 0 def 1 begincodespacerange<00><ff>endcodespacerange 1 begincidrange
<00><ff>0 endcidrange endcmap/DrvSBCMap currentdict/CMap defineresource pop end
end}bind def Is2016andT32?{T32DefSBCMap}def/T32RsrcBegin{Is2016andT32?{
/BitmapFontInit/ProcSet findresource begin}if}bind def/T32RsrcEnd{Is2016andT32?
{end}if}bind def/AddT32Char{6 1 roll 0 get 7 1 roll pop pop 5 1 roll pop
findfont/TT32R get addglyph}bind def/AddT3Char{findfont dup 5 2 roll 1 index
length 0 gt{cvx 1 index exch 4 exch put dup(imagemask)cvx cvn 5 exch put cvx}
{pop cvx}ifelse 3 -1 roll/CharProcs get 3 1 roll put dup/Encoding get 5 -1 roll
4 index put/Metrics get 3 1 roll put}bind def/AddT3T32Char Is2016andT32?{
/AddT32Char}{/AddT3Char}ifelse load def/GreNewFontT32{5 dict begin exch
/FontMatrix exch def exch/FontBBox exch def exch pop exch pop/CIDFontType 4 def
dup currentdict end/CIDFont defineresource 3 -1 roll dup/DrvSBCMap dup/CMap
resourcestatus{pop pop}{T32DefSBCMap}ifelse 5 -1 roll[exch]composefont dup
length dict copy dup/FID undef begin exch/TT32R exch def currentdict end
definefont/BitmapFontInit/ProcSet findresource begin/TT32R get[14 0 0 0 0 0]<>0
4 -1 roll addglyph end}bind def/GreNewFontT3{11 dict begin pop/FontType 3 def
/FontMatrix exch def/FontBBox exch def/Encoding exch def/CharProcs 257 dict def
CharProcs/.notdef{}put/Metrics 257 dict def Metrics/.notdef 3 -1 roll put
AddFontInfoBegin AddFontInfo AddFontInfoEnd/BuildChar{userdict begin/char exch
def dup/charname exch/Encoding get char get def dup/Metrics get charname 2 copy
known{get aload pop}{pop/.notdef get aload pop}ifelse setcachedevice begin
Encoding char get CharProcs exch 2 copy known{get}{pop/.notdef get}ifelse end
exec end}def currentdict end definefont pop}bind def/GreNewFont{Is2016andT32?
{GreNewFontT32}{GreNewFontT3}ifelse}bind def/UDF3{Is2016andT32?{/BitmapFontInit
/ProcSet findresource begin dup/CIDFont findresource removeall/CIDFont
undefineresource undefinefont end}{pop UDF}ifelse}bind def
%%EndResource
end reinitialize
/TT18b00
[76 0 0 0 0 0 ] 
 256 array 0 1 255 {1 index exch /.notdef put} for 
[0 0 0 0 ] 
[1 76 div 0 0 -1 76 div 0 0 ]
/__TT18b00
GreNewFont
T32RsrcBegin

1
/g1464 [77 0 5 -64 72 4 ] 
/g1464 [67 68 true [1 0 0 1 -5 64 ]  0 0]
[<000000000000000000
000000070000080000
000c000780000e0000
003e000780000f8000
001e0003c0001f0000
000f0001c0001e0000
00078001e0001c0000
0007c000e0003c0000
0003c000f000380000
0001e0007000780000
0001e0007800f00000
0000f0004000f00000
0000c0000001e00000
000000000001c00000
000000000003c00000
1fffffffffffffff00
1fffffffffffffff00
1fffffffffffffff00
1c0000000000000700
1c0000000000000700
1c0000000000000700
1c0000000000000700
1c0000000000000700
1c0000000000000700
1c0000000000000700
1c0000000000000700
1c07ffffffffc00700
1c07ffffffffe00700
1c07fffffffff00700
1c0000000007e00780
00000000000f800000
00000000001f000000
00000000003e000000
0000000000f8000000
0000000003f0000000
0000000007c0000000
00000000ff80000000
00000000fe00000000
00000000f800000000
00000000f000000000
00000000f000000000
00000000f000000000
00000000f000000000
00000000f000000000
ffffffffffffffffe0
ffffffffffffffffe0
ffffffffffffffffe0
00000000f000000000
00000000f000000000
00000000f000000000
00000000f000000000
00000000f000000000
00000000f000000000
00000000f000000000
00000000f000000000
00000000f000000000
00000000f000000000
00000000f000000000
00000000f000000000
00000000f000000000
00000000f000000000
00000000f000000000
00000000f000000000
00000000f000000000
00000403e000000000
000007ffe000000000
000003ffc000000000
000003ff8000000000
>
 ]
/TT18b00 AddT3T32Char

2
/g2360 [77 0 6 -61 69 5 ] 
/g2360 [63 66 true [1 0 0 1 -6 61 ]  0 0]
[<fffffffc3ffffffe
fffffffc3ffffffe
fffffffc3ffffffe
0000003c0000001e
0000003c0000001e
0000003c0000001e
0000003c0000001e
0700003c0380001e
0fc0003c07e0001e
03f0003c03f0001e
00fc003c00fc001e
007e003c003e001e
001f003c001f001e
000e003c000f001e
0004003c0006001e
0000003c0000061e
0000183c00001e1e
0000783c00007e1e
0000fc3c0001fc1e
0003f03c0007f01e
001fc03c001fc01e
007f003c00ff001e
01fc003c07fc001e
0ff0003c1ff0001e
7fc0003c1f80001e
ff0000781e00003e
7c003ff80c001ffc
70003ff800001ffc
20003fe000000ff8
00000003e0000000
00000003e0000000
00000003c0000000
0000000780000000
0000000780000000
0000000700000000
001ff80f0007fe00
001ffffffffffe00
001ffffffffffe00
001c000000000e00
001c000000000e00
001c000000000e00
001c000000000e00
001c000000000e00
001c000000000e00
001c000000000e00
001c000000000e00
001c000000000e00
001ffffffffffe00
001ffffffffffe00
001ffffffffffe00
001c000000000e00
001c000000000e00
001c000000000e00
001c000000000e00
001c000000000e00
001c000000000e00
001c000000000e00
001c000000000e00
001c000000000e00
001c000000000e00
001ffffffffffe00
001ffffffffffe00
001ffffffffffe00
001c000000000e00
001c000000000e00
001c000000000e00
>
 ]
/TT18b00 AddT3T32Char

3
/g965 [77 0 8 -67 76 2 ] 
/g965 [68 69 true [1 0 0 1 -8 67 ]  0 0]
[<000000000000000000
000000000000003800
000000000000007c00
000000000000003e00
000000000000001e00
0000000000001c0f00
0000000000003e0780
0000000000001f03c0
0000000000000f83c0
00000000000007c1e0
00000000000003c0e0
00000000000001e0c0
003fffffffff00f000
003fffffffff00f000
003fffffffff007800
003fffffffff007800
000000000000002000
000000000000000000
000000000000000000
000000000000000000
000000000000000000
000000000000000000
000000000000000000
000000000000000000
000000000000000000
000000000000000000
000000000000000000
000000000000000000
000000000000000000
fffffffffffffff000
fffffffffffffff000
fffffffffffffff000
7ffffffffffffff000
000000078000000000
000000078000000000
000000078000000000
000000078000000000
000000078000000000
0000000f8000000000
0000000f8000000000
0000000f8000000000
0000000f8000000000
0000000f0000000000
0000000f0000000000
0000001f0000000000
0000001f0000000000
0000001f0000000000
0000001e0000000000
0000003e0000000000
0000003e0000000000
0000003c0000000000
0000007c0000000000
000000780000000000
000000f80000000000
000001f00000000000
000001f00000000000
000003e00000000000
000007c00000000000
00000fc00000000000
00000f800000000000
00003f000000000000
00007e000000000000
0000fc000000000000
0001f8000000000000
0007f0000000000000
001fe0000000000000
003fc0000000000000
000f00000000000000
000000000000000000
>
 ]
/TT18b00 AddT3T32Char

4
/g662 [77 0 10 -31 68 -26 ] 
/g662 [58 5 true [1 0 0 1 -10 31 ]  0 0]
[<ffffffffffffff80
ffffffffffffffc0
ffffffffffffffc0
ffffffffffffffc0
ffffffffffffff80
>
 ]
/TT18b00 AddT3T32Char

5
/g957 [77 0 12 -61 63 2 ] 
/g957 [51 63 true [1 0 0 1 -12 61 ]  0 0]
[<000000c0000000
000000f0000000
000000f8000000
000001fc000000
000001f8000000
000001f0000000
000003e0000000
000007c0000000
000007c0000000
00000f80000000
00000f00000000
00001f00001f80
00003fffffffc0
00003fffffffe0
00007fffffffe0
0000f8000007c0
0000f800000f80
0001f000000f00
0003e000001f00
0007c000001e00
000f8000003e00
001f8000003c00
003f0000007c00
003e0000007800
007c000000f800
00f8000000f000
03f0000001f000
07e0000003e000
0fc01c0003e000
1f801f0007c000
3f003f800f8000
7e001fe00f8000
7c0007f81f0000
180001fc3e0000
000000ff3e0000
0000003ffc0000
0000001ff80000
00000007f80000
00000003f80000
00000007fc0000
00000007fe0000
0000000fbf0000
0000001f1f8000
0000003e0fc000
0000007c07e000
000000f803f000
000001f001f800
000007e000fc00
00000fc0007800
00001f80003000
00003f00000000
0000fe00000000
0001f800000000
0007f000000000
000fe000000000
003f8000000000
007f0000000000
01fe0000000000
07f80000000000
1fe00000000000
3fc00000000000
0f000000000000
04000000000000
>
 ]
/TT18b00 AddT3T32Char

6
/g2620 [77 0 4 -64 74 5 ] 
/g2620 [70 69 true [1 0 0 1 -4 64 ]  0 0]
[<000000000000000000
00007c000003800000
000038000003c00000
000038000003800000
070038018007800000
07003803c007800000
07803803c007000000
03c038078007000000
01c03807000f000000
01e0380f000f000000
00e0381e000e000000
00f0381c000e000000
0070383c001e000000
00403838001c000000
00003800001c000000
00003800003c000000
7000380060380001f8
7ffffffff03ffffff8
7ffffffff07ffffff8
7ffffffff07ffffff8
0001fe000070003800
0003bf0000f0003800
0007bb8000e0003800
000739e001f0003800
000e38f001f0007800
001c387803f0007800
003c383e03f0007800
0078381f07f0007000
01f0380f8738007000
03e038070f38007000
07c038001e3800f000
1f0078001e3c00f000
3e0078003c1c00e000
fc000000781c00e000
78008000781c00e000
2000e000300e01e000
0001f000000e01c000
0001e000000f01c000
0003c000000703c000
0003c000000703c000
000780000007838000
780780007803878000
7ffffffff803c70000
7ffffffff801cf0000
7f1e003c7801ef0000
001c00380000fe0000
003c00780000fe0000
0038007000007c0000
007800700000780000
00f000f000007c0000
00e000e00000fc0000
01f801e00001fe0000
03fe03c00001ef0000
039f83800003c78000
0787e780000787c000
0f01ff00000f83e000
00007e00001f01f000
00003f80003e00f800
00007fe0007c007c00
0001f3f001f8003e00
0003e0fc03f0001f00
000fc07c07c0000fc0
003f00381f800007e0
00fe00083f000003f0
07f80000fe000001f8
3fe00003f8000000fc
7f80000ff000000078
3c000007c000000010
000000030000000000
>
 ]
/TT18b00 AddT3T32Char
T32RsrcEnd
F /F0 0 /0 F /TT18b00 mF 
/F0S4C F0 [76.563 0 0 -76.563 0 0 ] mFS
F0S4C Ji 
1353 1419 M <01>S 
1430 1419 M <02>S  1507 1419 M <03>S  1583 1419 M <04>S  1660 1419 M <05>S  1737 1419 M <06>S  
Pscript_WinNT_Incr begin
%%BeginResource: file Pscript_Win_GdiObject 5.0 0
/SavedCTM null d/CTMsave{/SavedCTM SavedCTM currentmatrix d}b/CTMrestore
{SavedCTM setmatrix}b/mp null d/ADO_mxRot null d/GDIHMatrix null d
/GDIHPatternDict 22 dict d GDIHPatternDict `/PatternType 1 d/PaintType 2 d/Reps
L2?{1}{5}? d/XStep 8 Reps mul d/YStep XStep d/BBox[0 0 XStep YStep]d/TilingType
1 d/PaintProc{` 1 Lw[]0 sd PaintData , exec E}b/FGnd null d/BGnd null d
/HS_Horizontal{horiz}b/HS_Vertical{vert}b/HS_FDiagonal{fdiag}b/HS_BDiagonal
{biag}b/HS_Cross{horiz vert}b/HS_DiagCross{fdiag biag}b/MaxXYStep XStep YStep
gt{XStep}{YStep}? d/horiz{Reps{0 4 M XStep 0 - 0 8 +}repeat 0 -8 Reps mul + K}b
/vert{Reps{4 0 M 0 YStep - 8 0 +}repeat 0 -8 Reps mul + K}b/biag{Reps{0 0 M
MaxXYStep @ - 0 YStep neg M MaxXYStep @ - 0 8 +}repeat 0 -8 Reps mul + 0 YStep
M 8 8 - K}b/fdiag{Reps{0 0 M MaxXYStep @ neg - 0 YStep M MaxXYStep @ neg - 0 8
+}repeat 0 -8 Reps mul + MaxXYStep @ M 8 -8 - K}b E/makehatch{4 -2 $/yOrg ~ d
/xOrg ~ d GDIHPatternDict/PaintData 3 -1 $ put CTMsave GDIHMatrix setmatrix
GDIHPatternDict matrix xOrg yOrg + mp CTMrestore ~ U ~ 2 ^ put}b/h0{/h0
/HS_Horizontal makehatch}b/h1{/h1/HS_Vertical makehatch}b/h2{/h2/HS_FDiagonal
makehatch}b/h3{/h3/HS_BDiagonal makehatch}b/h4{/h4/HS_Cross makehatch}b/h5{/h5
/HS_DiagCross makehatch}b/GDIBWPatternMx null d/pfprep{save 8 1 $
/PatternOfTheDay 8 1 $ GDIBWPatternDict `/yOrg ~ d/xOrg ~ d/PaintData ~ d/yExt
~ d/Width ~ d/BGnd ~ d/FGnd ~ d/Height yExt RepsV mul d/mx[Width 0 0 Height 0
0]d E build_pattern ~ !}b/pfbf{/fEOFill ~ d pfprep hbf fEOFill{O}{L}? restore}b
/GraphInit{GDIHMatrix null eq{/SavedCTM matrix d : ADO_mxRot concat 0 0 snap +
: 0.48 @ GDIHPatternDict ` YStep mul ~ XStep mul ~ nonzero_dsnap YStep V ~
XStep V ~ E +S/GDIHMatrix matrix currentmatrix readonly d ; : 0.24 -0.24 +S
GDIBWPatternDict ` Width Height E nonzero_dsnap +S/GDIBWPatternMx matrix
currentmatrix readonly d ; ;}if}b
%%EndResource
%%BeginResource: file Pscript_Win_GdiObject_L1 5.0 0
/GDIBWPatternDict 25 dict @ `/PatternType 1 d/PaintType 2 d/RepsV 6 d/RepsH 5 d
/BBox[0 0 RepsH 1]d/TilingType 1 d/XStep 1 d/YStep 1 d/Height 8 RepsV mul d
/Width 8 d/mx[Width 0 0 Height neg 0 Height]d/FGnd null d/BGnd null d
/SetBGndFGnd{}b/PaintProc{` SetBGndFGnd RepsH{Width Height F mx PaintData
imagemask Width 0 +}repeat E}b E d/GDIpattfill{@ ` BGnd null ne PaintType 2 eq
and{: BGnd aload ! scol fEOFill{O}{L}? ; FGnd aload ! U/iCol 2 ^ put @ 0 eq{!
2}{@ 1 eq ~ 2 eq or{4}{5}?}? -1 $}if E @ patterncalc : 4 ^/PaintType get 2 eq
{iCol 0 eq{6 -1 $}if iCol 1 eq iCol 2 eq or{8 -3 $}if iCol 3 eq iCol 4 eq or{9
-4 $}if iCol scol}if fEOFill{eoclip}{clip}? N patternfill ; N}b/hbf
{GDIpattfill}b/hfMain{/fEOFill ~ d ~/iCol ~ d GDIpattfill}b/hf{: hfMain ;}b
/mpstr 1 string d/mp{~ @ length 12 add dict copy `/PatternCTM matrix
currentmatrix d/PatternMatrix ~ d/PatWidth XStep mpstr length mul d/PatHeight
YStep d/FontType 3 d/Encoding 256 array d 3 string 0 1 255{Encoding ~ @ 3 ^ cvs
cvn put}for !/FontMatrix matrix d/FontBBox BBox d/BuildChar{! @ ` XStep 0
FontBBox aload ! setcachedevice/PaintProc , E : exec ;}b & E ~ @ 3 -1 $
definefont}b/build_pattern{: GDIBWPatternDict ` Width Height E dsnap +S
/GDIBWPatternMx matrix currentmatrix d ; CTMsave GDIBWPatternMx setmatrix
GDIBWPatternDict @ ` xOrg yOrg E matrix + mp CTMrestore}b/patterncalc{` :
PatternCTM setmatrix PatternMatrix concat BBox aload ! ! ! + pathbbox ;
PatHeight V ceiling 4 1 $ PatWidth V ceiling 4 1 $ PatHeight V floor 4 1 $
PatWidth V floor 4 1 $ 2 ^ sub cvi abs ~ 3 ^ sub cvi abs ~ 4 2 $ PatHeight mul
~ PatWidth mul ~ E}b/patternfill{5 -1 $ @ ` Ji PatternCTM setmatrix
PatternMatrix concat 0 2 ^ 2 ^ M 0 1 mpstr length 1 sub{1 ^ mpstr 3 1 $ put}for
! 2 ^{currentpoint 5 ^{mpstr S}repeat YStep add M}repeat ! ! ! ! E}b/pbf{: 14
dict `/fGray ~ d/fEOFill ~ d/yOrg ~ d/xOrg ~ d/PaintData ~ d/OutputBPP ~ d
/Height ~ d/Width ~ d/mx xOrg yOrg matrix + d fGray{/PaintProc{` Width Height
OutputBPP mx PaintData image E}b}{/PaintProc{` Width Height 8 mx PaintData F
OutputBPP 8 idiv colorimage E}b}? pathbbox fEOFill{eoclip}{clip}?/Top ~ d/Right
~ d/Bottom ~ d/Left ~ d Top Height neg Bottom 1 sub{Left Width Right 1 sub{1 ^
2 copy + & PaintProc neg ~ neg ~ +}bind for !}bind for E ;}b
%%EndResource
end reinitialize
0.93 0.488 0.191 1 scol solid N 1058 1616 M 1212 1616 I : [ 0.367 0 0 0.367 0 0 ] concat K 
; 0.348 0.348 0.348 1 scol 35352 VM?
/TT16b00
[70 0 0 0 0 0 ] 
 256 array 0 1 255 {1 index exch /.notdef put} for 
[0 0 0 0 ] 
[1 70 div 0 0 -1 70 div 0 0 ]
/__TT16b00
GreNewFont
T32RsrcBegin

12
/g258 [34 0 3 -34 29 1 ] 
/g258 [26 35 true [1 0 0 1 -3 34 ]  0 0]
[<001f0000
01fff000
0ffffc00
1ffffe00
3fffff00
3f80ff80
3c003f80
38001f80
00000fc0
00000fc0
00000fc0
00000fc0
00000fc0
00000fc0
00000fc0
007fffc0
03ffffc0
0fffffc0
1fffffc0
3fc00fc0
7f000fc0
7e000fc0
7e000fc0
fc000fc0
fc000fc0
fc000fc0
fc001fc0
fe003fc0
7e007fc0
7f81ffc0
3ffff7c0
3fffe7c0
0fffc7c0
07ff07c0
00780000
>
 ]
/TT16b00 AddT3T32Char

13
/g448 [32 0 1 -33 31 0 ] 
/g448 [30 33 true [1 0 0 1 -1 33 ]  0 0]
[<fc0000fc
fc0000fc
7e0000fc
7e0001f8
7f0001f8
3f0001f0
3f0003f0
3f8003f0
1f8003e0
1f8007e0
1fc007e0
0fc00fc0
0fc00fc0
07e00fc0
07e01f80
07e01f80
03f01f80
03f03f00
03f03f00
01f83e00
01f87e00
01f87e00
00fc7c00
00fcfc00
00fcfc00
007ef800
007ff800
003ff800
003ff000
003ff000
001fe000
001fe000
001fe000
>
 ]
/TT16b00 AddT3T32Char

14
/g286 [35 0 3 -34 32 1 ] 
/g286 [29 35 true [1 0 0 1 -3 34 ]  0 0]
[<00078000
007ff800
01fffe00
03ffff80
07ffffc0
0ff01fc0
1fc00fe0
1f8007e0
3f0003f0
3e0003f0
7e0001f0
7e0001f8
7c0001f8
7c0001f8
fffffff8
fffffff8
fffffff8
fffffff8
fffffff0
fc000000
fc000000
fc000000
7e000000
7e000000
7e000000
7f000000
3f000000
3f800000
1fc000f0
1ff007f0
0ffffff0
07ffffe0
01ffffc0
007fff00
0007e000
>
 ]
/TT16b00 AddT3T32Char

15
/g396 [25 0 5 -34 24 0 ] 
/g396 [19 34 true [1 0 0 1 -5 34 ]  0 0]
[<000700
f83fc0
f87fe0
f8ffe0
f9ffe0
fbffc0
ffe040
ffc000
ff8000
ff0000
fe0000
fe0000
fc0000
fc0000
fc0000
fc0000
fc0000
fc0000
fc0000
fc0000
fc0000
fc0000
fc0000
fc0000
fc0000
fc0000
fc0000
fc0000
fc0000
fc0000
fc0000
fc0000
fc0000
fc0000
>
 ]
/TT16b00 AddT3T32Char

16
/g336 [33 0 2 -34 31 13 ] 
/g336 [29 47 true [1 0 0 1 -2 34 ]  0 0]
[<000f0000
00fffff8
03fffff8
07fffff8
0ffffff8
1fe07ff8
1f801f00
3f001f80
3f000f80
3e000fc0
3e000fc0
3e000fc0
3e000fc0
3e000fc0
3f000fc0
3f001f80
1f801f80
1fc07f00
0fffff00
1ffffe00
1ffffc00
3efff000
7c1f8000
7c000000
7c000000
7c000000
7f000000
7fffc000
3fffff00
1fffffc0
0fffffe0
1ffffff0
3f000ff0
7e0003f8
7c0001f8
fc0001f8
fc0001f8
f80001f8
fc0001f8
fc0003f0
fe0007f0
7f801fe0
7fffffc0
3fffff80
1fffff00
03fffc00
003f8000
>
 ]
/TT16b00 AddT3T32Char
T32RsrcEnd
F /F1 0 /0 F /TT16b00 mF 
/F1S46 F1 [70.832 0 0 -70.832 0 0 ] mFS
F1S46 Ji 
1231 1639 M <0C>S 
1267 1639 M <0D>S  1297 1639 M <0E>S  1332 1639 M <0F>S  1356 1639 M <0C>S  1391 1639 M <10>S  1427 1639 M <0E>S  
0.648 0.648 0.648 1 scol N 1525 1616 M 1679 1616 I : [ 0.367 0 0 0.367 0 0 ] concat K 
; 0.348 0.348 0.348 1 scol 5010 VM?
T32RsrcBegin

17
/g373 [57 0 5 -34 52 0 ] 
/g373 [47 34 true [1 0 0 1 -5 34 ]  0 0]
[<0003c0003c00
f81ff801ff80
f87ffc03ffe0
f8fffe0ffff0
f9ffff1ffff0
fbf8ffbf8ff8
ffe03ffe03f8
ffc01ffc01fc
ff801ff800fc
ff000ff000fc
fe000fe000fc
fc000fc0007e
fc0007c0007e
fc0007c0007e
fc0007c0007e
fc0007c0007e
fc0007c0007e
fc0007c0007e
fc0007c0007e
fc0007c0007e
fc0007c0007e
fc0007c0007e
fc0007c0007e
fc0007c0007e
fc0007c0007e
fc0007c0007e
fc0007c0007e
fc0007c0007e
fc0007c0007e
fc0007c0007e
fc0007c0007e
fc0007c0007e
fc0007c0007e
fc0007c0007e
>
 ]
/TT16b00 AddT3T32Char

18
/g349 [16 0 5 -46 12 0 ] 
/g349 [7 46 true [1 0 0 1 -5 46 ]  0 0]
[<7c
fc
fe
fe
fe
fc
78
00
00
00
00
00
00
fc
fc
fc
fc
fc
fc
fc
fc
fc
fc
fc
fc
fc
fc
fc
fc
fc
fc
fc
fc
fc
fc
fc
fc
fc
fc
fc
fc
fc
fc
fc
fc
fc
>
 ]
/TT16b00 AddT3T32Char

19
/g374 [37 0 5 -34 32 0 ] 
/g374 [27 34 true [1 0 0 1 -5 34 ]  0 0]
[<0003c000
f81ff800
f87ffe00
f8ffff00
f9ffff80
fbf8ffc0
ffe01fc0
ffc00fc0
ff800fe0
ff0007e0
fe0007e0
fc0007e0
fc0007e0
fc0007e0
fc0007e0
fc0007e0
fc0007e0
fc0007e0
fc0007e0
fc0007e0
fc0007e0
fc0007e0
fc0007e0
fc0007e0
fc0007e0
fc0007e0
fc0007e0
fc0007e0
fc0007e0
fc0007e0
fc0007e0
fc0007e0
fc0007e0
fc0003e0
>
 ]
/TT16b00 AddT3T32Char
T32RsrcEnd
1697 1639 M <11>S 
1756 1639 M <12>S  1768 1639 M <13>S  
0.852 0.852 0.852 1 scol 0 Lc 16 Lw : 0 0 2839 1729 rc N 0 0 M 2837 0 I 2837 1729 I 0 1729 I C 
: [ 0.367 0 0 0.367 0 0 ] concat K 
; ; LH
(%%[Page: 1]%%) = 
%%PageTrailer

%%Trailer
%%BoundingBox: 0 0 341 207
%%DocumentNeededResources: 
%%DocumentSuppliedResources: 
%%+ procset Pscript_WinNT_ErrorHandler 5.0 0
%%+ procset Pscript_FatalError 5.0 0
%%+ procset Pscript_Win_Basic 5.0 0
%%+ procset Pscript_Win_Utils_L1 5.0 0
%%+ procset Pscript_Win_GdiObject 5.0 0
%%+ procset Pscript_Win_GdiObject_L1 5.0 0
%%+ procset Pscript_T3Hdr 5.0 0
%%+ procset Pscript_Text 5.0 0
Pscript_WinNT_Incr dup /terminate get exec
VMsave restore
%%Pages: 1
(%%[LastPage]%%) = 
%%EOF
